{
    "protocol_version": 0,
    "arbitration_id": {
        "extended": true,
        "fields": [
            {
                "name": "repeat",
                "start": 4,
                "length": 1,
                "default_value": 0
            },
            {
                "name": "flags",
                "start": 5,
                "length": 5,
                "default_value": 0
            },
            {
                "name": "id_CRC8",
                "start": 10,
                "length": 8,
                "default_value": 0
            },
            {
                "name": "reciever_net",
                "start": 18,
                "length": 2,
                "default_value": 0,
                "value_constraints": {
                    "allowed_list": [
                        0,
                        1
                    ]
                }
            },
            {
                "name": "reciever_id",
                "start": 20,
                "length": 5,
                "value_constraints": {
                    "max_value": 20
                }
            },
            {
                "name": "sender_net",
                "start": 25,
                "length": 2,
                "default_value": 0,
                "value_constraints": {
                    "allowed_list": [
                        0,
                        1
                    ]
                }
            },
            {
                "name": "sender_id",
                "start": 27,
                "length": 5,
                "value_constraints": {
                    "min_value": 1
                }
            },
            {
                "name": "msg_type",
                "start": 32,
                "length": 1,
                "default_value": 0
            }
        ]
    }
}
