--Passport--
0 start_step
5 end_step
3 shema_type
1 gauss_points_type
0.01 dt
0.15 epsilon
1 deltacnt
-------------------------------------
1 vortex_structures
0.0 0.0 0.0 ELK.dat   Stuct_1
0.0 1.2 0.0 bublikx1x80.txt   Struct_1
-------------------------------------
0 test_vorton
